﻿thisRow.t,notes,beginning.started,welcome_message.started,welcome_key.started,beginning.stopped,welcome_key.keys,welcome_key.rt,welcome_key.duration,instructions.started,instruct.started,instruct_key.started,instructions.stopped,instruct_key.keys,instruct_key.rt,instruct_key.duration,participant,session,date,expName,psychopyVersion,frameRate,expStart,
,,0.0026621000142768025,0.004963100014720112,0.004963100014720112,1.6508814999833703,space,1.6368788999971002,None,,,,,,,,ert,03,2024-02-13_16h31.05.856,Line_orientation,2023.2.3,60.18534678295593,2024-02-13 16h31.16.393674 +0100,
,,,,,,,,,1.6509638000279665,1.6653582000290044,1.6653582000290044,4.118102699983865,space,2.4449150000000373,None,ert,03,2024-02-13_16h31.05.856,Line_orientation,2023.2.3,60.18534678295593,2024-02-13 16h31.16.393674 +0100,
