﻿trials_loop.thisRepN,trials_loop.thisTrialN,trials_loop.thisN,trials_loop.thisIndex,TargetImage,thisRow.t,notes,new_task.started,introduction.started,spacebar_introduction.started,new_task.stopped,spacebar_introduction.keys,spacebar_introduction.rt,spacebar_introduction.duration,instructions.started,text_instructions.started,spacebar_intro.started,instructions.stopped,spacebar_intro.keys,spacebar_intro.rt,spacebar_intro.duration,instruct_shape.started,instructions_shape.started,instruct_space_bar.started,image_square.started,image_plus.started,image_cross.started,instruct_shape.stopped,instruct_space_bar.keys,instruct_space_bar.rt,instruct_space_bar.duration,trial.started,Participant,Age (in years),Handedness ,Session,Do you like this session?,date,expName,psychopyVersion,frameRate,expStart,
,,,,,,,0.020888299972284585,0.024248400004580617,0.024248400004580617,1.2583928999956697,space,1.2283055000007153,None,,,,,,,,,,,,,,,,,,,fd,e,right,3,yes,2024-02-13_14h18.31.890,crtt_exp,2023.2.3,60.257117105331716,2024-02-13 14h18.44.101162 +0100,
,,,,,,,,,,,,,,1.2584673999808729,1.274522399995476,1.274522399995476,2.525227200007066,space,1.2340841999975964,None,,,,,,,,,,,,fd,e,right,3,yes,2024-02-13_14h18.31.890,crtt_exp,2023.2.3,60.257117105331716,2024-02-13 14h18.44.101162 +0100,
,,,,,,,,,,,,,,,,,,,,,2.525307299976703,2.551434099965263,2.551434099965263,2.551434099965263,2.551434099965263,2.551434099965263,3.725822300009895,space,1.1584198999917135,None,,fd,e,right,3,yes,2024-02-13_14h18.31.890,crtt_exp,2023.2.3,60.257117105331716,2024-02-13 14h18.44.101162 +0100,
,,,,,,,,,,,,,,,,,,,,,,,,,,,,,,,3.7367940999683924,,,,,,,,,,,
