﻿trials_loop.thisRepN,trials_loop.thisTrialN,trials_loop.thisN,trials_loop.thisIndex,TargetImage,thisRow.t,notes,new_task.started,introduction.started,spacebar_introduction.started,new_task.stopped,spacebar_introduction.keys,spacebar_introduction.rt,spacebar_introduction.duration,instructions.started,text_instructions.started,spacebar_intro.started,instructions.stopped,spacebar_intro.keys,spacebar_intro.rt,spacebar_intro.duration,instruct_shape.started,instructions_shape.started,instruct_space_bar.started,image_square.started,image_plus.started,image_cross.started,instruct_shape.stopped,instruct_space_bar.keys,instruct_space_bar.rt,instruct_space_bar.duration,trial.started,Participant,Age (in years),Handedness ,Session,Do you like this session?,date,expName,psychopyVersion,frameRate,expStart,
,,,,,,,0.022858499956782907,0.026452099962625653,0.026452099962625653,0.4425710999639705,space,0.4109415000420995,None,,,,,,,,,,,,,,,,,,,fg,3,right,3,yes,2024-02-13_14h15.05.309,crtt_exp,2023.2.3,60.03254965166541,2024-02-13 14h15.13.580317 +0100,
,,,,,,,,,,,,,,0.4426030999748036,0.4593884999630973,0.4593884999630973,1.1431884999619797,space,0.6679743000422604,None,,,,,,,,,,,,fg,3,right,3,yes,2024-02-13_14h15.05.309,crtt_exp,2023.2.3,60.03254965166541,2024-02-13 14h15.13.580317 +0100,
,,,,,,,,,,,,,,,,,,,,,1.1432405999512412,1.1696836999617517,1.1696836999617517,1.1696836999617517,1.1696836999617517,1.1696836999617517,3.0943555999547243,space,1.917896600032691,None,,fg,3,right,3,yes,2024-02-13_14h15.05.309,crtt_exp,2023.2.3,60.03254965166541,2024-02-13 14h15.13.580317 +0100,
,,,,,,,,,,,,,,,,,,,,,,,,,,,,,,,3.103071099962108,,,,,,,,,,,
