﻿trials_loop.thisRepN,trials_loop.thisTrialN,trials_loop.thisN,trials_loop.thisIndex,TargetImage,thisRow.t,notes,new_task.started,introduction.started,spacebar_introduction.started,new_task.stopped,spacebar_introduction.keys,spacebar_introduction.rt,spacebar_introduction.duration,instructions.started,text_instructions.started,spacebar_intro.started,instructions.stopped,spacebar_intro.keys,spacebar_intro.rt,spacebar_intro.duration,instruct_shape.started,instructions_shape.started,instruct_space_bar.started,image_square.started,image_plus.started,image_cross.started,instruct_shape.stopped,instruct_space_bar.keys,instruct_space_bar.rt,instruct_space_bar.duration,trial.started,Participant,Age (in years),Handedness ,Session,Do you like this session?,date,expName,psychopyVersion,frameRate,expStart,
,,,,,,,0.022794799995608628,0.025753900001291186,0.025753900001291186,0.749708199989982,space,0.7070425000274554,None,,,,,,,,,,,,,,,,,,,fg,3,right,3,yes,2024-02-13_14h17.03.951,crtt_exp,2023.2.3,60.068935117368746,2024-02-13 14h17.10.693099 +0100,
,,,,,,,,,,,,,,0.7497939000022598,0.765712300024461,0.765712300024461,2.0498225000337698,space,1.2749459000187926,None,,,,,,,,,,,,fg,3,right,3,yes,2024-02-13_14h17.03.951,crtt_exp,2023.2.3,60.068935117368746,2024-02-13 14h17.10.693099 +0100,
,,,,,,,,,,,,,,,,,,,,,2.0499115000129677,2.0787854000227526,2.0787854000227526,2.0787854000227526,2.0787854000227526,2.0787854000227526,3.4670289999921806,space,1.3834526999853551,None,,fg,3,right,3,yes,2024-02-13_14h17.03.951,crtt_exp,2023.2.3,60.068935117368746,2024-02-13 14h17.10.693099 +0100,
,,,,,,,,,,,,,,,,,,,,,,,,,,,,,,,3.4769930000184104,,,,,,,,,,,
