﻿thisRow.t,notes,new_task.started,introduction.started,spacebar_introduction.started,new_task.stopped,spacebar_introduction.keys,spacebar_introduction.rt,spacebar_introduction.duration,instructions.started,text_instructions.started,spacebar_intro.started,instructions.stopped,spacebar_intro.keys,spacebar_intro.rt,spacebar_intro.duration,end_screen.started,text_end.started,spacebar_end.started,end_screen.stopped,spacebar_end.keys,spacebar_end.rt,spacebar_end.duration,Participant,Age (in years),Handedness ,Session,Do you like this session?,date,expName,psychopyVersion,frameRate,expStart,
,,0.0013895999873057008,0.00329949997831136,0.00329949997831136,1.0200873999856412,space,1.0070378999807872,None,,,,,,,,,,,,,,,kg,5767,right,456,yes,2024-02-13_11h51.54.554,crtt_exp,2023.2.3,60.23185651394498,2024-02-13 11h52.02.773424 +0100,
,,,,,,,,,1.0201693999697454,1.0357737999875098,1.0357737999875098,2.8532703000237234,space,1.8128296000068076,None,,,,,,,,kg,5767,right,456,yes,2024-02-13_11h51.54.554,crtt_exp,2023.2.3,60.23185651394498,2024-02-13 11h52.02.773424 +0100,
,,,,,,,,,,,,,,,,2.85335039999336,2.8693233000230975,2.8693233000230975,3.469970399979502,space,0.5927825999679044,None,kg,5767,right,456,yes,2024-02-13_11h51.54.554,crtt_exp,2023.2.3,60.23185651394498,2024-02-13 11h52.02.773424 +0100,
