﻿thisRow.t,notes,beginning.started,welcome_message.started,welcome_key.started,beginning.stopped,welcome_key.keys,welcome_key.rt,welcome_key.duration,instructions.started,instruct.started,instruct_key.started,instructions.stopped,instruct_key.keys,instruct_key.rt,instruct_key.duration,participant,session,date,expName,psychopyVersion,frameRate,expStart,
,,0.002472899970598519,0.004929699993226677,0.004929699993226677,0.4807460999581963,space,0.46976400003768504,None,,,,,,,,zzu,04,2024-02-13_16h31.40.768,Line_orientation,2023.2.3,60.028369399773894,2024-02-13 16h31.51.414020 +0100,
,,,,,,,,,0.4808144000126049,0.4954617999610491,0.4954617999610491,8.131558499997482,space,7.6260241999989375,None,zzu,04,2024-02-13_16h31.40.768,Line_orientation,2023.2.3,60.028369399773894,2024-02-13 16h31.51.414020 +0100,
